{
    "success": true,
    "sid": 831799,
    "count": 1,
    "data": [
        {
            "id": "4515",
            "831799X1510X24237": {
                "qid": "24237",
                "parent_qid": "0",
                "code": "ngay_khaosat",
                "question": "Ngày khảo sát",
                "type": "D",
                "group_name": "THÔNG TIN MÔN HỌC KHẢO SÁT",
                "group_order": "0",
                "question_order": "3",
                "gid": "1510",
                "value": "0000-00-00 00:00:00"
            },
            "831799X1510X24238": {
                "qid": "24238",
                "parent_qid": "0",
                "code": "hk",
                "question": "Học kỳ",
                "type": "!",
                "group_name": "THÔNG TIN MÔN HỌC KHẢO SÁT",
                "group_order": "0",
                "question_order": "4",
                "gid": "1510",
                "value": "2",
                "available_choices": []
            },
            "831799X1510X24239": {
                "qid": "24239",
                "parent_qid": "0",
                "code": "namhoc",
                "question": "Năm học",
                "type": "S",
                "group_name": "THÔNG TIN MÔN HỌC KHẢO SÁT",
                "group_order": "0",
                "question_order": "5",
                "gid": "1510",
                "value": "2023"
            },
            "831799X1510X24242": {
                "qid": "24242",
                "parent_qid": "0",
                "code": "tenmh",
                "question": "Tên môn học",
                "type": "S",
                "group_name": "THÔNG TIN MÔN HỌC KHẢO SÁT",
                "group_order": "0",
                "question_order": "6",
                "gid": "1510",
                "value": "Kỹ thuật thiết kế kiểm tra"
            },
            "831799X1510X24243": {
                "qid": "24243",
                "parent_qid": "0",
                "code": "mamh",
                "question": "Mã môn học",
                "type": "S",
                "group_name": "THÔNG TIN MÔN HỌC KHẢO SÁT",
                "group_order": "0",
                "question_order": "7",
                "gid": "1510",
                "value": "CE409.O21.2"
            },
            "831799X1510X24244": {
                "qid": "24244",
                "parent_qid": "0",
                "code": "nganhhoc",
                "question": "Ngành học",
                "type": "!",
                "group_name": "THÔNG TIN MÔN HỌC KHẢO SÁT",
                "group_order": "0",
                "question_order": "8",
                "gid": "1510",
                "value": "KTMT",
                "available_choices": []
            },
            "831799X1510X24245": {
                "qid": "24245",
                "parent_qid": "0",
                "code": "tengv",
                "question": "Họ và  tên giảng viên",
                "type": "S",
                "group_name": "THÔNG TIN MÔN HỌC KHẢO SÁT",
                "group_order": "0",
                "question_order": "9",
                "gid": "1510",
                "value": "Phạm Thanh Hùng"
            },
            "831799X1509X24240": {
                "qid": "24240",
                "parent_qid": "0",
                "code": "hocluc",
                "question": "Xếp loại học lực trong học kỳ vừa qua?",
                "type": "L",
                "group_name": "THÔNG TIN CHUNG",
                "group_order": "1",
                "question_order": "3",
                "gid": "1509",
                "value": "",
                "answer_text": "",
                "available_choices": {
                    "A1": "Giỏi",
                    "A2": "Khá",
                    "A3": "Trung bình - Khá",
                    "A4": "Trung bình",
                    "A5": "Yếu"
                }
            },
            "831799X1509X24246": {
                "qid": "24246",
                "parent_qid": "0",
                "code": "thoigian_lenlop",
                "question": "Tỷ lệ thời gian Anh/Chị lên lớp đối với môn học này",
                "type": "L",
                "group_name": "THÔNG TIN CHUNG",
                "group_order": "1",
                "question_order": "4",
                "gid": "1509",
                "value": "A2",
                "answer_text": "50-80%",
                "available_choices": {
                    "A1": "<50%",
                    "A2": "50-80%",
                    "A3": ">80%"
                }
            },
            "831799X1509X24250": {
                "qid": "24250",
                "parent_qid": "0",
                "code": "tudanhgia",
                "question": "Anh chị tự đánh giá đạt được bao nhiêu % chuẩn đầu ra của môn học này:",
                "type": "L",
                "group_name": "THÔNG TIN CHUNG",
                "group_order": "1",
                "question_order": "5",
                "gid": "1509",
                "value": "",
                "answer_text": "",
                "available_choices": {
                    "A1": "Không biết chuẩn đầu ra là gì",
                    "A2": "Dưới 50%",
                    "A3": "Từ 50 đến dưới 70%",
                    "A4": "Từ 70 đến dưới 90%",
                    "A5": "Trên 90%"
                }
            },
            "831799X1509X24251": {
                "qid": "24251",
                "parent_qid": "0",
                "code": "B4",
                "question": "Chất lượng đường truyền của Bạn có đáp ứng tốt mỗi buổi học?",
                "type": "L",
                "group_name": "THÔNG TIN CHUNG",
                "group_order": "1",
                "question_order": "6",
                "gid": "1509",
                "value": "",
                "answer_text": "",
                "available_choices": {
                    "A1": "Đáp ứng rất tốt",
                    "A2": "Đáp ứng khá tốt",
                    "A3": "Đáp ứng bình thường",
                    "A4": "Không đáp ứng, chậm và hay bị ngắt kết nối"
                }
            },
            "831799X1509X24252": {
                "qid": "24252",
                "parent_qid": "0",
                "code": "B5",
                "question": "Bạn có không gian học tập riêng để không bị ảnh hưởng các yếu tố bên ngoài khi tham gia học trực tuyến?",
                "type": "L",
                "group_name": "THÔNG TIN CHUNG",
                "group_order": "1",
                "question_order": "8",
                "gid": "1509",
                "value": "",
                "answer_text": "",
                "available_choices": {
                    "A1": "Có không gian riêng, đảm bảo cho việc học tập",
                    "A2": "Không có không gian riêng, ồn và khó tập trung"
                }
            },
            "831799X1509X24253": {
                "qid": "24253",
                "parent_qid": "0",
                "code": "B6",
                "question": "Bạn có trang bị đầy đủ các thiết bị bao gồm Máy tính, Loa, Micro, Camera đủ tốt để học trực tuyến không? ",
                "type": "Y",
                "group_name": "THÔNG TIN CHUNG",
                "group_order": "1",
                "question_order": "10",
                "gid": "1509",
                "value": ""
            },
            "831799X1512X24241": {
                "qid": "24241",
                "parent_qid": "0",
                "code": "Q25",
                "question": "Điều Anh/ Chị hài lòng nhất về  hoạt động giảng dạy của GV",
                "type": "T",
                "group_name": "Ý KIẾN KHÁC",
                "group_order": "5",
                "question_order": "0",
                "gid": "1512",
                "value": ""
            },
            "831799X1512X24249": {
                "qid": "24249",
                "parent_qid": "0",
                "code": "Q26",
                "question": "Điều Anh/ Chị không hài lòng nhất về  hoạt động giảng dạy của GV",
                "type": "T",
                "group_name": "Ý KIẾN KHÁC",
                "group_order": "5",
                "question_order": "1",
                "gid": "1512",
                "value": ""
            },
            "831799X1511X24247": {
                "qid": "24247",
                "parent_qid": "0",
                "code": "MH1",
                "question": "Đánh giá về hoạt động giảng dạy trực tuyến của Giảng viên",
                "type": "F",
                "group_name": "ĐÁNH GIÁ VỀ HOẠT ĐỘNG GIẢNG DẠY",
                "group_order": "2",
                "question_order": "1",
                "gid": "1511",
                "value": {
                    "MH209": {
                        "MH01": null,
                        "MH02": null,
                        "MH03": null,
                        "MH04": null
                    },
                    "MH208": {
                        "MH01": null,
                        "MH02": null,
                        "MH03": null,
                        "MH04": null
                    },
                    "MH207": {
                        "MH01": null,
                        "MH02": null,
                        "MH03": null,
                        "MH04": null
                    },
                    "MH206": {
                        "MH01": null,
                        "MH02": null,
                        "MH03": null,
                        "MH04": null
                    },
                    "MH205": {
                        "MH01": null,
                        "MH02": null,
                        "MH03": null,
                        "MH04": null
                    },
                    "MH204": {
                        "MH01": null,
                        "MH02": null,
                        "MH03": null,
                        "MH04": null
                    },
                    "MH203": {
                        "MH01": null,
                        "MH02": null,
                        "MH03": null,
                        "MH04": null
                    },
                    "MH202": {
                        "MH01": null,
                        "MH02": null,
                        "MH03": null,
                        "MH04": null
                    },
                    "MH201": {
                        "MH01": null,
                        "MH02": null,
                        "MH03": null,
                        "MH04": null
                    }
                },
                "raw_values": {
                    "831799X1511X24247MH201": "MH04",
                    "831799X1511X24247MH202": "MH04",
                    "831799X1511X24247MH203": "MH04",
                    "831799X1511X24247MH204": "MH03",
                    "831799X1511X24247MH205": "MH04",
                    "831799X1511X24247MH206": "MH03",
                    "831799X1511X24247MH207": "MH03",
                    "831799X1511X24247MH208": "MH03",
                    "831799X1511X24247MH209": "MH03"
                },
                "sub_questions": [
                    {
                        "qid": "24323",
                        "parent_qid": "24247",
                        "title": "MH209",
                        "question": "Kết quả thực hiện đồ án/bài tập thực hành là khách quan, công bằng và phản ánh được năng lực học tập của sinh viên",
                        "type": "F"
                    },
                    {
                        "qid": "24322",
                        "parent_qid": "24247",
                        "title": "MH208",
                        "question": "Hình thức đánh giá được giảng viên sử dụng phù hợp với nội dung thực hành",
                        "type": "F"
                    },
                    {
                        "qid": "24321",
                        "parent_qid": "24247",
                        "title": "MH207",
                        "question": "Sinh viên hài lòng với cách hướng dẫn của giảng viên trong việc thực hiện đồ án, bài tập của môn thực hành",
                        "type": "F"
                    },
                    {
                        "qid": "24320",
                        "parent_qid": "24247",
                        "title": "MH206",
                        "question": "Giảng viên có quy định về thời gian nộp đồ án, bài tập hoặc báo cáo cho sinh viên",
                        "type": "F"
                    },
                    {
                        "qid": "24319",
                        "parent_qid": "24247",
                        "title": "MH205",
                        "question": "Giảng viên thường xuyên sử dụng moodle, email, forum, hoặc trang web cá nhân để trao đổi với sinh viên về đồ án, bài tập thực hành",
                        "type": "F"
                    },
                    {
                        "qid": "24318",
                        "parent_qid": "24247",
                        "title": "MH204",
                        "question": "Giảng viên cung cấp các tài liệu đầy đủ trong quá trình thực hiện đồ án, bài tập thực hành",
                        "type": "F"
                    },
                    {
                        "qid": "24317",
                        "parent_qid": "24247",
                        "title": "MH203",
                        "question": "Bài tập, đồ án phù hợp với nội dung của môn học",
                        "type": "F"
                    },
                    {
                        "qid": "24316",
                        "parent_qid": "24247",
                        "title": "MH202",
                        "question": "Giảng viên giải đáp thắc mắc/câu hỏi của sinh viên  về nội dung môn học một cách nhanh chóng (trong vòng 24 giờ)",
                        "type": "F"
                    },
                    {
                        "qid": "24315",
                        "parent_qid": "24247",
                        "title": "MH201",
                        "question": "Giảng viên có gặp sinh viên (tối thiểu 3 buổi học tập trung) theo quy định đã thông báo ",
                        "type": "F"
                    }
                ],
                "labels": [
                    {
                        "qid": "24247",
                        "code": "MH01",
                        "answer": "1",
                        "sortorder": "1"
                    },
                    {
                        "qid": "24247",
                        "code": "MH02",
                        "answer": "2",
                        "sortorder": "2"
                    },
                    {
                        "qid": "24247",
                        "code": "MH03",
                        "answer": "3",
                        "sortorder": "3"
                    },
                    {
                        "qid": "24247",
                        "code": "MH04",
                        "answer": "4",
                        "sortorder": "4"
                    }
                ],
                "sub_question_fields": {
                    "MH201": "MH04",
                    "MH202": "MH04",
                    "MH203": "MH04",
                    "MH204": "MH03",
                    "MH205": "MH04",
                    "MH206": "MH03",
                    "MH207": "MH03",
                    "MH208": "MH03",
                    "MH209": "MH03"
                }
            },
            "831799X1511X24248": {
                "qid": "24248",
                "parent_qid": "0",
                "code": "MH11",
                "question": "Không ý kiến",
                "type": "Q",
                "group_name": "ĐÁNH GIÁ VỀ HOẠT ĐỘNG GIẢNG DẠY",
                "group_order": "2",
                "question_order": "12",
                "gid": "1511",
                "value": {
                    "MH111": "",
                    "MH112": "",
                    "MH113": "",
                    "MH114": "",
                    "MH115": "",
                    "MH116": "",
                    "MH117": "",
                    "MH118": "",
                    "MH119": "",
                    "MH120": "",
                    "MH121": "",
                    "MH122": "",
                    "MH123": "",
                    "MH124": "",
                    "MH125": "",
                    "MH126": "",
                    "MH127": "",
                    "MH128": "",
                    "MH129": ""
                }
            }
        }
    ],
    "meta": {
        "pagination": {
            "page": 1,
            "pageSize": 1,
            "pageCount": 88,
            "total": "4400"
        }
    }
}